<svg width="9" height="8" viewBox="0 0 9 8" fill="none" xmlns="http://www.w3.org/2000/svg">
<path fill-rule="evenodd" clip-rule="evenodd" d="M8.70712 2.20706L3.00001 7.91417L0.292908 5.20706L1.70712 3.79285L3.00001 5.08574L7.29291 0.792847L8.70712 2.20706Z" fill="#5E5E5E"/>
</svg>
